<svg width="46" height="56" viewBox="0 0 46 56" fill="none" xmlns="http://www.w3.org/2000/svg">
<g clip-path="url(#clip0_1_3451)">
<path d="M44.1782 23.0732H1.56528V30.8212H44.1782V23.0732Z" stroke="#185063" stroke-width="2.30053" stroke-miterlimit="10"/>
<path d="M31.5884 30.8232V31.5551C31.5884 32.6451 31.1554 33.6905 30.3847 34.4612C29.6139 35.2319 28.5686 35.6649 27.4786 35.6649H18.2647C17.1748 35.6649 16.1294 35.2319 15.3587 34.4612C14.5879 33.6905 14.1549 32.6451 14.1549 31.5551V30.8232" stroke="#185063" stroke-width="2.30053" stroke-miterlimit="10"/>
<path d="M20.141 39.7687V52.1278C20.1361 52.4875 20.2039 52.8445 20.3402 53.1774C20.4765 53.5103 20.6785 53.8123 20.9342 54.0654C21.4493 54.5769 22.1458 54.8639 22.8717 54.8639C23.5976 54.8639 24.2941 54.5769 24.8092 54.0654C25.0645 53.812 25.2662 53.51 25.4025 53.1771C25.5388 52.8443 25.6067 52.4874 25.6024 52.1278V35.6631" stroke="#185063" stroke-width="2.30053" stroke-miterlimit="10"/>
<path d="M14.9926 3.88623V6.16007" stroke="#185063" stroke-width="2.30053" stroke-miterlimit="10"/>
<path d="M14.9926 8.43359V10.7074" stroke="#185063" stroke-width="2.30053" stroke-miterlimit="10"/>
<path d="M18.4023 7.29834H16.1284" stroke="#185063" stroke-width="2.30053" stroke-miterlimit="10"/>
<path d="M13.8545 7.29834H11.5828" stroke="#185063" stroke-width="2.30053" stroke-miterlimit="10"/>
<path d="M38.6469 41.2598V43.5336" stroke="#185063" stroke-width="2.30053" stroke-miterlimit="10"/>
<path d="M38.6469 45.8052V48.079" stroke="#185063" stroke-width="2.30053" stroke-miterlimit="10"/>
<path d="M42.0566 44.6694H39.7827" stroke="#185063" stroke-width="2.30053" stroke-miterlimit="10"/>
<path d="M37.511 44.6694H35.2372" stroke="#185063" stroke-width="2.30053" stroke-miterlimit="10"/>
<path d="M41.9064 0.0786133V2.35246" stroke="#185063" stroke-width="2.30053" stroke-miterlimit="10"/>
<path d="M41.9064 4.62646V6.90031" stroke="#185063" stroke-width="2.30053" stroke-miterlimit="10"/>
<path d="M45.3161 3.49072H43.0444" stroke="#185063" stroke-width="2.30053" stroke-miterlimit="10"/>
<path d="M40.7706 3.49072H38.4967" stroke="#185063" stroke-width="2.30053" stroke-miterlimit="10"/>
<path d="M7.95738 41.2598H10.2291" stroke="#185063" stroke-width="2.30053" stroke-miterlimit="10"/>
<path d="M29.4542 10.5679H31.7281" stroke="#185063" stroke-width="2.30053" stroke-miterlimit="10"/>
<path d="M1.95656 1.13623H4.2304" stroke="#185063" stroke-width="2.30053" stroke-miterlimit="10"/>
<path d="M0 18.5254H45.4663" stroke="#185063" stroke-width="2.30053" stroke-miterlimit="10"/>
</g>
<defs>
<clipPath id="clip0_1_3451">
<rect width="45.4663" height="56" fill="white"/>
</clipPath>
</defs>
</svg>
